EESchema Schematic File Version 4
LIBS:f100-cache
EELAYER 26 0
EELAYER END
$Descr A4 11693 8268
encoding utf-8
Sheet 4 5
Title "Audio & Video"
Date "2019-05-09"
Rev "1.3"
Comp ""
Comment1 ""
Comment2 ""
Comment3 ""
Comment4 ""
$EndDescr
$Comp
L Conn_01x45_Female:Conn_01x45_Female J?
U 1 1 5C90AA0E
P 2600 3000
AR Path="/5C6A6B11/5C90AA0E" Ref="J?"  Part="1" 
AR Path="/5C8D651F/5C90AA0E" Ref="J3"  Part="1" 
F 0 "J3" H 2919 3061 50  0000 L CNN
F 1 "62684-451100ALF" H 2919 2970 50  0000 L CNN
F 2 "Footprints:Amphenol_62684_1x45-1MP_P0.50mm_Horizontal" H 2600 3300 50  0001 C CNN
F 3 "https://cdn.amphenol-icc.com/media/wysiwyg/files/drawing/62684.pdf" H 2600 3300 50  0001 C CNN
	1    2600 3000
	1    0    0    -1  
$EndComp
NoConn ~ 2400 800 
Text GLabel 2300 1600 0    50   Input ~ 0
LCD_CLK
Text GLabel 2300 1700 0    50   Input ~ 0
LCD_DE
Text GLabel 2300 1500 0    50   Input ~ 0
LCD_HSYNC
Text GLabel 2300 1400 0    50   Input ~ 0
LCD_VSYNC
$Comp
L power:GND #PWR?
U 1 1 5C90AA1A
P 1700 4500
AR Path="/5C6A6B11/5C90AA1A" Ref="#PWR?"  Part="1" 
AR Path="/5C8D651F/5C90AA1A" Ref="#PWR0147"  Part="1" 
F 0 "#PWR0147" H 1700 4250 50  0001 C CNN
F 1 "GND" V 1705 4372 50  0000 R CNN
F 2 "" H 1700 4500 50  0001 C CNN
F 3 "" H 1700 4500 50  0001 C CNN
	1    1700 4500
	0    1    1    0   
$EndComp
Wire Wire Line
	2400 4600 2300 4600
Wire Wire Line
	2300 4600 2300 4500
Connection ~ 2300 4500
Wire Wire Line
	2300 4500 2400 4500
Text GLabel 2300 1800 0    50   Input ~ 0
LCD_R7
Text GLabel 2300 1900 0    50   Input ~ 0
LCD_R6
Text GLabel 2300 2000 0    50   Input ~ 0
LCD_R5
Text GLabel 2300 2100 0    50   Input ~ 0
LCD_R4
Text GLabel 2300 2200 0    50   Input ~ 0
LCD_R3
Text GLabel 2300 2300 0    50   Input ~ 0
LCD_R2
Text GLabel 2300 2400 0    50   Input ~ 0
LCD_G7
Text GLabel 2300 2500 0    50   Input ~ 0
LCD_G6
Text GLabel 2300 2600 0    50   Input ~ 0
LCD_G5
Text GLabel 2300 2700 0    50   Input ~ 0
LCD_G4
Text GLabel 2300 2800 0    50   Input ~ 0
LCD_G3
Text GLabel 2300 2900 0    50   Input ~ 0
LCD_G2
Text GLabel 2300 3000 0    50   Input ~ 0
LCD_B7
Text GLabel 2300 3100 0    50   Input ~ 0
LCD_B6
Text GLabel 2300 3200 0    50   Input ~ 0
LCD_B5
Text GLabel 2300 3300 0    50   Input ~ 0
LCD_B4
Text GLabel 2300 3400 0    50   Input ~ 0
LCD_B3
Text GLabel 2300 3500 0    50   Input ~ 0
LCD_B2
Text GLabel 2300 4900 0    50   Output ~ 0
TS_XR
Text GLabel 2300 5000 0    50   Output ~ 0
TS_YD
Text GLabel 2300 5100 0    50   Output ~ 0
TS_XL
Text GLabel 2300 5200 0    50   Output ~ 0
TS_YU
Wire Wire Line
	2300 5200 2400 5200
Wire Wire Line
	2400 5100 2300 5100
Wire Wire Line
	2300 5000 2400 5000
Wire Wire Line
	2400 4900 2300 4900
Wire Wire Line
	2400 4400 2300 4400
Wire Wire Line
	2300 4400 2300 4300
Connection ~ 2300 4300
Wire Wire Line
	2300 4300 2400 4300
$Comp
L power:+3.3V #PWR?
U 1 1 5C90AA42
P 1700 4300
AR Path="/5C6A6B11/5C90AA42" Ref="#PWR?"  Part="1" 
AR Path="/5C8D651F/5C90AA42" Ref="#PWR0148"  Part="1" 
F 0 "#PWR0148" H 1700 4150 50  0001 C CNN
F 1 "+3.3V" V 1715 4428 50  0000 L CNN
F 2 "" H 1700 4300 50  0001 C CNN
F 3 "" H 1700 4300 50  0001 C CNN
	1    1700 4300
	0    -1   -1   0   
$EndComp
Text GLabel 2300 3900 0    50   Input ~ 0
SPI4_SCK
Wire Wire Line
	2300 1400 2400 1400
Wire Wire Line
	2400 1500 2300 1500
Wire Wire Line
	2300 1600 2400 1600
Wire Wire Line
	2400 1700 2300 1700
Wire Wire Line
	2300 1800 2400 1800
Wire Wire Line
	2400 1900 2300 1900
Wire Wire Line
	2300 2000 2400 2000
Wire Wire Line
	2400 2100 2300 2100
Wire Wire Line
	2300 2200 2400 2200
Wire Wire Line
	2400 2300 2300 2300
Wire Wire Line
	2300 2400 2400 2400
Wire Wire Line
	2400 2500 2300 2500
Wire Wire Line
	2300 2600 2400 2600
Wire Wire Line
	2400 2700 2300 2700
Wire Wire Line
	2300 2800 2400 2800
Wire Wire Line
	2400 2900 2300 2900
Wire Wire Line
	2300 3000 2400 3000
Wire Wire Line
	2400 3100 2300 3100
Wire Wire Line
	2300 3200 2400 3200
Wire Wire Line
	2400 3300 2300 3300
Wire Wire Line
	2300 3400 2400 3400
Wire Wire Line
	2400 3500 2300 3500
Wire Wire Line
	2300 3900 2400 3900
Text GLabel 2300 3700 0    50   Input ~ 0
SPI4_MOSI
Text GLabel 2300 3600 0    50   Output ~ 0
SPI4_MISO
Text GLabel 2300 4100 0    50   Input ~ 0
SPI4_NSS
Wire Wire Line
	2400 4100 2300 4100
Wire Wire Line
	2400 3700 2300 3700
Wire Wire Line
	2400 3600 2300 3600
Text GLabel 1350 1300 0    50   Input ~ 0
LCD_RESET
Connection ~ 1800 4500
$Comp
L Device:C_Small C?
U 1 1 5C90AA7B
P 1800 4400
AR Path="/5C6A6B11/5C90AA7B" Ref="C?"  Part="1" 
AR Path="/5C8D651F/5C90AA7B" Ref="C34"  Part="1" 
F 0 "C34" H 1892 4446 50  0000 L CNN
F 1 "100nF" H 1892 4355 50  0000 L CNN
F 2 "Capacitor_SMD:C_0603_1608Metric" H 1800 4400 50  0001 C CNN
F 3 "~" H 1800 4400 50  0001 C CNN
	1    1800 4400
	1    0    0    -1  
$EndComp
Wire Wire Line
	1800 4500 2300 4500
Wire Wire Line
	1800 4300 2300 4300
Wire Wire Line
	1700 4500 1800 4500
Wire Wire Line
	1700 4300 1800 4300
Connection ~ 1800 4300
$Comp
L power:GND #PWR?
U 1 1 5C90AA87
P 1700 3800
AR Path="/5C6A6B11/5C90AA87" Ref="#PWR?"  Part="1" 
AR Path="/5C8D651F/5C90AA87" Ref="#PWR0149"  Part="1" 
F 0 "#PWR0149" H 1700 3550 50  0001 C CNN
F 1 "GND" V 1705 3672 50  0000 R CNN
F 2 "" H 1700 3800 50  0001 C CNN
F 3 "" H 1700 3800 50  0001 C CNN
	1    1700 3800
	0    1    1    0   
$EndComp
Text GLabel 2300 4200 0    50   Output ~ 0
LCD_FMARK
Wire Wire Line
	2300 4200 2400 4200
Wire Wire Line
	1700 3800 1800 3800
Wire Wire Line
	2400 4000 1800 4000
Wire Wire Line
	1800 4000 1800 3800
Connection ~ 1800 3800
Wire Wire Line
	1800 3800 2400 3800
$Comp
L power:GND #PWR?
U 1 1 5C90AA94
P 2300 1000
AR Path="/5C6A6B11/5C90AA94" Ref="#PWR?"  Part="1" 
AR Path="/5C8D651F/5C90AA94" Ref="#PWR0150"  Part="1" 
F 0 "#PWR0150" H 2300 750 50  0001 C CNN
F 1 "GND" V 2305 872 50  0000 R CNN
F 2 "" H 2300 1000 50  0001 C CNN
F 3 "" H 2300 1000 50  0001 C CNN
	1    2300 1000
	0    1    1    0   
$EndComp
$Comp
L power:+3.3V #PWR?
U 1 1 5C90AA9A
P 2300 1100
AR Path="/5C6A6B11/5C90AA9A" Ref="#PWR?"  Part="1" 
AR Path="/5C8D651F/5C90AA9A" Ref="#PWR0151"  Part="1" 
F 0 "#PWR0151" H 2300 950 50  0001 C CNN
F 1 "+3.3V" V 2315 1228 50  0000 L CNN
F 2 "" H 2300 1100 50  0001 C CNN
F 3 "" H 2300 1100 50  0001 C CNN
	1    2300 1100
	0    -1   -1   0   
$EndComp
$Comp
L power:+3.3V #PWR?
U 1 1 5C90AAA0
P 2300 1200
AR Path="/5C6A6B11/5C90AAA0" Ref="#PWR?"  Part="1" 
AR Path="/5C8D651F/5C90AAA0" Ref="#PWR0152"  Part="1" 
F 0 "#PWR0152" H 2300 1050 50  0001 C CNN
F 1 "+3.3V" V 2315 1328 50  0000 L CNN
F 2 "" H 2300 1200 50  0001 C CNN
F 3 "" H 2300 1200 50  0001 C CNN
	1    2300 1200
	0    -1   -1   0   
$EndComp
$Comp
L power:+3.3V #PWR?
U 1 1 5C90AAA6
P 2300 900
AR Path="/5C6A6B11/5C90AAA6" Ref="#PWR?"  Part="1" 
AR Path="/5C8D651F/5C90AAA6" Ref="#PWR0153"  Part="1" 
F 0 "#PWR0153" H 2300 750 50  0001 C CNN
F 1 "+3.3V" V 2315 1028 50  0000 L CNN
F 2 "" H 2300 900 50  0001 C CNN
F 3 "" H 2300 900 50  0001 C CNN
	1    2300 900 
	0    -1   -1   0   
$EndComp
Wire Wire Line
	2300 900  2400 900 
Wire Wire Line
	2300 1000 2400 1000
Wire Wire Line
	2300 1100 2400 1100
Wire Wire Line
	2300 1200 2400 1200
$Comp
L Connector:TestPoint TP?
U 1 1 5C90AAD7
P 1450 1200
AR Path="/5C6A25D2/5C90AAD7" Ref="TP?"  Part="1" 
AR Path="/5C6A6B11/5C90AAD7" Ref="TP?"  Part="1" 
AR Path="/5C8D651F/5C90AAD7" Ref="TP5"  Part="1" 
F 0 "TP5" H 1508 1320 50  0000 L CNN
F 1 "LCD_RESET" H 1508 1229 50  0000 L CNN
F 2 "TestPoint:TestPoint_Pad_D1.0mm" H 1650 1200 50  0001 C CNN
F 3 "~" H 1650 1200 50  0001 C CNN
	1    1450 1200
	1    0    0    -1  
$EndComp
Wire Wire Line
	1350 1300 1450 1300
Wire Wire Line
	1450 1300 1450 1200
Wire Wire Line
	2400 1300 1450 1300
Connection ~ 1450 1300
Text GLabel 1400 6700 0    50   Input ~ 0
LCD_BL_EN
$Comp
L power:+3.3V #PWR?
U 1 1 5C91EDA3
P 8350 1500
AR Path="/5C6A6B11/5C91EDA3" Ref="#PWR?"  Part="1" 
AR Path="/5C8D651F/5C91EDA3" Ref="#PWR0154"  Part="1" 
F 0 "#PWR0154" H 8350 1350 50  0001 C CNN
F 1 "+3.3V" H 8365 1673 50  0000 C CNN
F 2 "" H 8350 1500 50  0001 C CNN
F 3 "" H 8350 1500 50  0001 C CNN
	1    8350 1500
	1    0    0    -1  
$EndComp
$Comp
L Device:C_Small C?
U 1 1 5C91EDA9
P 8550 1800
AR Path="/5C6A6B11/5C91EDA9" Ref="C?"  Part="1" 
AR Path="/5C8D651F/5C91EDA9" Ref="C38"  Part="1" 
F 0 "C38" V 8321 1800 50  0000 C CNN
F 1 "1uF/16V" V 8412 1800 50  0000 C CNN
F 2 "Capacitor_SMD:C_0603_1608Metric" H 8550 1800 50  0001 C CNN
F 3 "~" H 8550 1800 50  0001 C CNN
	1    8550 1800
	0    1    -1   0   
$EndComp
$Comp
L power:GND #PWR?
U 1 1 5C91EDB0
P 9250 2900
AR Path="/5C6A6B11/5C91EDB0" Ref="#PWR?"  Part="1" 
AR Path="/5C8D651F/5C91EDB0" Ref="#PWR0155"  Part="1" 
F 0 "#PWR0155" H 9250 2650 50  0001 C CNN
F 1 "GND" H 9255 2727 50  0000 C CNN
F 2 "" H 9250 2900 50  0001 C CNN
F 3 "" H 9250 2900 50  0001 C CNN
	1    9250 2900
	1    0    0    -1  
$EndComp
$Comp
L Device:C_Small C?
U 1 1 5C91EDB6
P 9350 2700
AR Path="/5C6A6B11/5C91EDB6" Ref="C?"  Part="1" 
AR Path="/5C8D651F/5C91EDB6" Ref="C7"  Part="1" 
F 0 "C7" H 9442 2746 50  0000 L CNN
F 1 "220pF" H 9442 2655 50  0000 L CNN
F 2 "Capacitor_SMD:C_0603_1608Metric" H 9350 2700 50  0001 C CNN
F 3 "~" H 9350 2700 50  0001 C CNN
	1    9350 2700
	-1   0    0    -1  
$EndComp
$Comp
L Device:C_Small C?
U 1 1 5C91EDBD
P 9550 2700
AR Path="/5C6A6B11/5C91EDBD" Ref="C?"  Part="1" 
AR Path="/5C8D651F/5C91EDBD" Ref="C8"  Part="1" 
F 0 "C8" H 9642 2746 50  0000 L CNN
F 1 "220pF" H 9642 2655 50  0000 L CNN
F 2 "Capacitor_SMD:C_0603_1608Metric" H 9550 2700 50  0001 C CNN
F 3 "~" H 9550 2700 50  0001 C CNN
	1    9550 2700
	1    0    0    -1  
$EndComp
Wire Wire Line
	9350 2800 9350 2900
Wire Wire Line
	9550 2800 9550 2900
Wire Wire Line
	8350 2900 9250 2900
Connection ~ 9250 2900
Wire Wire Line
	9350 2450 9350 2600
Wire Wire Line
	9550 2250 9550 2600
Wire Wire Line
	9250 2900 9350 2900
Text GLabel 7550 2450 0    50   Input ~ 0
AUDIO_NSTANDBY
$Comp
L Device:C_Small C?
U 1 1 5C91EDCC
P 7750 2250
AR Path="/5C6A6B11/5C91EDCC" Ref="C?"  Part="1" 
AR Path="/5C8D651F/5C91EDCC" Ref="C35"  Part="1" 
F 0 "C35" V 7521 2250 50  0000 C CNN
F 1 "100nF" V 7612 2250 50  0000 C CNN
F 2 "Capacitor_SMD:C_0603_1608Metric" H 7750 2250 50  0001 C CNN
F 3 "~" H 7750 2250 50  0001 C CNN
	1    7750 2250
	0    1    1    0   
$EndComp
Wire Wire Line
	7850 2250 7950 2250
Text GLabel 7550 2250 0    50   Input ~ 0
AUDIO_OUT
Wire Wire Line
	7550 2250 7650 2250
$Comp
L Connector_Generic:Conn_01x02 J?
U 1 1 5C91EDD6
P 9850 2250
AR Path="/5C6A6B11/5C91EDD6" Ref="J?"  Part="1" 
AR Path="/5C8D651F/5C91EDD6" Ref="J6"  Part="1" 
F 0 "J6" H 9930 2242 50  0000 L CNN
F 1 "0532610271" H 9930 2151 50  0000 L CNN
F 2 "Connector_Molex:Molex_PicoBlade_53261-0271_1x02-1MP_P1.25mm_Horizontal" H 9850 2250 50  0001 C CNN
F 3 "https://www.molex.com/pdm_docs/sd/532610271_sd.pdf" H 9850 2250 50  0001 C CNN
	1    9850 2250
	1    0    0    -1  
$EndComp
Wire Wire Line
	9650 2350 9650 2450
Wire Wire Line
	8850 2250 8750 2250
Connection ~ 9350 2900
Wire Wire Line
	9350 2900 9550 2900
Wire Wire Line
	9650 2450 9350 2450
Wire Wire Line
	9550 2250 9650 2250
Connection ~ 9550 2250
$Comp
L Amplifier_Audio:PAM8301 U?
U 1 1 5C91EDE5
P 8350 2350
AR Path="/5C6A6B11/5C91EDE5" Ref="U?"  Part="1" 
AR Path="/5C8D651F/5C91EDE5" Ref="U4"  Part="1" 
F 0 "U4" H 8100 2100 50  0000 C CNN
F 1 "PAM8301" H 8650 2100 50  0000 C CNN
F 2 "Rounded:SOT-23-6" H 8350 2350 50  0001 C CNN
F 3 "https://www.diodes.com/assets/Datasheets/PAM8301.pdf" H 8350 2350 50  0001 C CNN
	1    8350 2350
	1    0    0    -1  
$EndComp
Wire Wire Line
	8350 2650 8350 2900
$Comp
L Device:C_Small C?
U 1 1 5C91EDED
P 8650 1600
AR Path="/5C6A6B11/5C91EDED" Ref="C?"  Part="1" 
AR Path="/5C8D651F/5C91EDED" Ref="C46"  Part="1" 
F 0 "C46" V 8879 1600 50  0000 C CNN
F 1 "10uF/10V" V 8788 1600 50  0000 C CNN
F 2 "Capacitor_SMD:C_0603_1608Metric" H 8650 1600 50  0001 C CNN
F 3 "~" H 8650 1600 50  0001 C CNN
	1    8650 1600
	0    -1   -1   0   
$EndComp
Wire Wire Line
	8750 1600 8850 1600
$Comp
L power:GND #PWR?
U 1 1 5C91EDF6
P 8950 1600
AR Path="/5C6A6B11/5C91EDF6" Ref="#PWR?"  Part="1" 
AR Path="/5C8D651F/5C91EDF6" Ref="#PWR0156"  Part="1" 
F 0 "#PWR0156" H 8950 1350 50  0001 C CNN
F 1 "GND" V 8955 1472 50  0000 R CNN
F 2 "" H 8950 1600 50  0001 C CNN
F 3 "" H 8950 1600 50  0001 C CNN
	1    8950 1600
	0    -1   -1   0   
$EndComp
$Comp
L Device:Ferrite_Bead_Small FB?
U 1 1 5C91EDFC
P 8950 2250
AR Path="/5C6A6B11/5C91EDFC" Ref="FB?"  Part="1" 
AR Path="/5C8D651F/5C91EDFC" Ref="FB2"  Part="1" 
F 0 "FB2" V 8713 2250 50  0000 C CNN
F 1 "2A/120R" V 8804 2250 50  0000 C CNN
F 2 "Inductor_SMD:L_0603_1608Metric" V 8880 2250 50  0001 C CNN
F 3 "https://www.murata.com/en-us/products/productdata/8796747366430/ENFA0021.pdf" H 8950 2250 50  0001 C CNN
	1    8950 2250
	0    1    1    0   
$EndComp
$Comp
L Device:Ferrite_Bead_Small FB?
U 1 1 5C91EE03
P 9250 2450
AR Path="/5C6A6B11/5C91EE03" Ref="FB?"  Part="1" 
AR Path="/5C8D651F/5C91EE03" Ref="FB3"  Part="1" 
F 0 "FB3" V 9013 2450 50  0000 C CNN
F 1 "2A/120R" V 9104 2450 50  0000 C CNN
F 2 "Inductor_SMD:L_0603_1608Metric" V 9180 2450 50  0001 C CNN
F 3 "https://www.murata.com/en-us/products/productdata/8796747366430/ENFA0021.pdf" H 9250 2450 50  0001 C CNN
	1    9250 2450
	0    1    1    0   
$EndComp
Wire Wire Line
	8350 1500 8350 1600
Connection ~ 9350 2450
Wire Wire Line
	8650 1800 8850 1800
Wire Wire Line
	8450 1800 8350 1800
Connection ~ 8350 1800
Wire Wire Line
	8350 1800 8350 2050
Wire Wire Line
	8550 1600 8350 1600
Connection ~ 8350 1600
Wire Wire Line
	8350 1600 8350 1800
Wire Wire Line
	8850 1800 8850 1600
Wire Wire Line
	8950 1600 8850 1600
Connection ~ 8850 1600
Wire Wire Line
	9050 2250 9550 2250
Wire Wire Line
	8750 2450 9150 2450
$Comp
L power:+3.3V #PWR?
U 1 1 5C91EE1F
P 1400 6100
AR Path="/5C6A6B11/5C91EE1F" Ref="#PWR?"  Part="1" 
AR Path="/5C8D651F/5C91EE1F" Ref="#PWR0157"  Part="1" 
F 0 "#PWR0157" H 1400 5950 50  0001 C CNN
F 1 "+3.3V" V 1415 6228 50  0000 L CNN
F 2 "" H 1400 6100 50  0001 C CNN
F 3 "" H 1400 6100 50  0001 C CNN
	1    1400 6100
	0    -1   -1   0   
$EndComp
Wire Wire Line
	1500 6700 1600 6700
$Comp
L power:GND #PWR?
U 1 1 5C91EE2F
P 2300 7100
AR Path="/5C6A6B11/5C91EE2F" Ref="#PWR?"  Part="1" 
AR Path="/5C8D651F/5C91EE2F" Ref="#PWR0158"  Part="1" 
F 0 "#PWR0158" H 2300 6850 50  0001 C CNN
F 1 "GND" H 2305 6927 50  0000 C CNN
F 2 "" H 2300 7100 50  0001 C CNN
F 3 "" H 2300 7100 50  0001 C CNN
	1    2300 7100
	1    0    0    -1  
$EndComp
$Comp
L Device:R_Small R?
U 1 1 5C97BE55
P 9600 5700
AR Path="/5C6A6B11/5C97BE55" Ref="R?"  Part="1" 
AR Path="/5C8D651F/5C97BE55" Ref="R12"  Part="1" 
F 0 "R12" V 9404 5700 50  0000 C CNN
F 1 "178/1%" V 9495 5700 50  0000 C CNN
F 2 "Resistor_SMD:R_0603_1608Metric" H 9600 5700 50  0001 C CNN
F 3 "~" H 9600 5700 50  0001 C CNN
	1    9600 5700
	0    1    1    0   
$EndComp
$Comp
L Device:R_Small R?
U 1 1 5C97BE5C
P 9300 5900
AR Path="/5C6A6B11/5C97BE5C" Ref="R?"  Part="1" 
AR Path="/5C8D651F/5C97BE5C" Ref="R8"  Part="1" 
F 0 "R8" V 9104 5900 50  0000 C CNN
F 1 "30.5/1%" V 9195 5900 50  0000 C CNN
F 2 "Resistor_SMD:R_0603_1608Metric" H 9300 5900 50  0001 C CNN
F 3 "~" H 9300 5900 50  0001 C CNN
	1    9300 5900
	0    1    1    0   
$EndComp
$Comp
L Device:R_Small R?
U 1 1 5C97BE63
P 9000 6100
AR Path="/5C6A6B11/5C97BE63" Ref="R?"  Part="1" 
AR Path="/5C8D651F/5C97BE63" Ref="R9"  Part="1" 
F 0 "R9" V 8804 6100 50  0000 C CNN
F 1 "50/1%" V 8895 6100 50  0000 C CNN
F 2 "Resistor_SMD:R_0603_1608Metric" H 9000 6100 50  0001 C CNN
F 3 "~" H 9000 6100 50  0001 C CNN
	1    9000 6100
	0    1    1    0   
$EndComp
Wire Wire Line
	8800 6100 8900 6100
$Comp
L power:+3.3V #PWR?
U 1 1 5C97BE6D
P 10600 5900
AR Path="/5C6A6B11/5C97BE6D" Ref="#PWR?"  Part="1" 
AR Path="/5C8D651F/5C97BE6D" Ref="#PWR0159"  Part="1" 
F 0 "#PWR0159" H 10600 5750 50  0001 C CNN
F 1 "+3.3V" V 10615 6028 50  0000 L CNN
F 2 "" H 10600 5900 50  0001 C CNN
F 3 "" H 10600 5900 50  0001 C CNN
	1    10600 5900
	0    1    1    0   
$EndComp
Wire Wire Line
	10600 5900 10500 5900
Text GLabel 8800 5700 0    50   Input ~ 0
LED_STATUS_RED
Text GLabel 8800 5900 0    50   Input ~ 0
LED_STATUS_GREEN
Text GLabel 8800 6100 0    50   Input ~ 0
LED_STATUS_BLUE
$Comp
L Device:C_Small C47
U 1 1 5C9A2C18
P 1500 5900
F 0 "C47" H 1592 5946 50  0000 L CNN
F 1 "1uF/16V" H 1592 5855 50  0000 L CNN
F 2 "Capacitor_SMD:C_0603_1608Metric" H 1500 5900 50  0001 C CNN
F 3 "~" H 1500 5900 50  0001 C CNN
	1    1500 5900
	-1   0    0    -1  
$EndComp
$Comp
L power:GND #PWR0172
U 1 1 5C9AA196
P 1500 5700
F 0 "#PWR0172" H 1500 5450 50  0001 C CNN
F 1 "GND" H 1505 5527 50  0000 C CNN
F 2 "" H 1500 5700 50  0001 C CNN
F 3 "" H 1500 5700 50  0001 C CNN
	1    1500 5700
	-1   0    0    1   
$EndComp
Wire Wire Line
	1500 5800 1500 5700
$Comp
L Device:L L2
U 1 1 5C9B1ED9
P 1900 6100
F 0 "L2" V 2090 6100 50  0000 C CNN
F 1 "10uH" V 1999 6100 50  0000 C CNN
F 2 "Inductor_SMD:L_1210_3225Metric" H 1900 6100 50  0001 C CNN
F 3 "~" H 1900 6100 50  0001 C CNN
	1    1900 6100
	0    -1   -1   0   
$EndComp
Wire Wire Line
	1500 6100 1400 6100
Wire Wire Line
	1500 6100 1500 6500
Connection ~ 1500 6100
$Comp
L Device:D_Schottky D4
U 1 1 5C9F3AC7
P 2550 6100
F 0 "D4" H 2550 5884 50  0000 C CNN
F 1 "30V/100mA" H 2550 5975 50  0000 C CNN
F 2 "Rounded:D_SOD-523" H 2550 6100 50  0001 C CNN
F 3 "~" H 2550 6100 50  0001 C CNN
	1    2550 6100
	-1   0    0    1   
$EndComp
Wire Wire Line
	2400 6100 2300 6100
Wire Wire Line
	2200 6500 2300 6500
Wire Wire Line
	2300 6500 2300 6100
Wire Wire Line
	1500 6100 1500 6000
$Comp
L power:GND #PWR0182
U 1 1 5CA15E40
P 2800 5700
F 0 "#PWR0182" H 2800 5450 50  0001 C CNN
F 1 "GND" H 2805 5527 50  0000 C CNN
F 2 "" H 2800 5700 50  0001 C CNN
F 3 "" H 2800 5700 50  0001 C CNN
	1    2800 5700
	-1   0    0    1   
$EndComp
Wire Wire Line
	2800 5800 2800 5700
Wire Wire Line
	2800 6100 2800 6000
Text GLabel 2900 6100 2    50   Output ~ 0
LCD_BL_A
Wire Wire Line
	2700 6100 2800 6100
Connection ~ 2800 6100
Wire Wire Line
	2800 6100 2900 6100
Wire Wire Line
	1500 6500 1600 6500
Text GLabel 2900 6700 2    50   Input ~ 0
LCD_BL_K
Wire Wire Line
	2900 6700 2300 6700
Wire Wire Line
	2300 6700 2300 6800
Connection ~ 2300 6700
Wire Wire Line
	2300 6700 2200 6700
$Comp
L Device:R_Small R1
U 1 1 5CA6CF0E
P 2300 6900
F 0 "R1" H 2359 6946 50  0000 L CNN
F 1 "5.1/1%" H 2359 6855 50  0000 L CNN
F 2 "Resistor_SMD:R_0603_1608Metric" H 2300 6900 50  0001 C CNN
F 3 "~" H 2300 6900 50  0001 C CNN
	1    2300 6900
	1    0    0    -1  
$EndComp
$Comp
L power:GND #PWR0183
U 1 1 5CA878FF
P 1900 7000
F 0 "#PWR0183" H 1900 6750 50  0001 C CNN
F 1 "GND" H 1905 6827 50  0000 C CNN
F 2 "" H 1900 7000 50  0001 C CNN
F 3 "" H 1900 7000 50  0001 C CNN
	1    1900 7000
	1    0    0    -1  
$EndComp
Text GLabel 2300 4700 0    50   Input ~ 0
LCD_BL_A
Text GLabel 2300 4800 0    50   Output ~ 0
LCD_BL_K
Wire Wire Line
	2300 4700 2400 4700
Wire Wire Line
	2400 4800 2300 4800
Wire Wire Line
	7850 2450 7950 2450
$Comp
L Device:R_Small R33
U 1 1 5CBAC2F3
P 7850 2650
F 0 "R33" H 7909 2696 50  0000 L CNN
F 1 "100k/5%" H 7909 2605 50  0000 L CNN
F 2 "Resistor_SMD:R_0603_1608Metric" H 7850 2650 50  0001 C CNN
F 3 "~" H 7850 2650 50  0001 C CNN
	1    7850 2650
	-1   0    0    -1  
$EndComp
Wire Wire Line
	7850 2450 7850 2550
Wire Wire Line
	7850 2450 7550 2450
Connection ~ 7850 2450
$Comp
L power:GND #PWR0188
U 1 1 5CBB4F74
P 7850 2850
F 0 "#PWR0188" H 7850 2600 50  0001 C CNN
F 1 "GND" H 7855 2677 50  0000 C CNN
F 2 "" H 7850 2850 50  0001 C CNN
F 3 "" H 7850 2850 50  0001 C CNN
	1    7850 2850
	1    0    0    -1  
$EndComp
Wire Wire Line
	7850 2750 7850 2850
$Comp
L Device:R_Small R32
U 1 1 5CBB9A4E
P 1500 6900
F 0 "R32" H 1559 6946 50  0000 L CNN
F 1 "100k/5%" H 1559 6855 50  0000 L CNN
F 2 "Resistor_SMD:R_0603_1608Metric" H 1500 6900 50  0001 C CNN
F 3 "~" H 1500 6900 50  0001 C CNN
	1    1500 6900
	-1   0    0    -1  
$EndComp
Wire Wire Line
	1500 6700 1500 6800
$Comp
L power:GND #PWR0189
U 1 1 5CBB9A56
P 1500 7100
F 0 "#PWR0189" H 1500 6850 50  0001 C CNN
F 1 "GND" H 1505 6927 50  0000 C CNN
F 2 "" H 1500 7100 50  0001 C CNN
F 3 "" H 1500 7100 50  0001 C CNN
	1    1500 7100
	1    0    0    -1  
$EndComp
Wire Wire Line
	1500 7000 1500 7100
Wire Wire Line
	1400 6700 1500 6700
Connection ~ 1500 6700
Wire Wire Line
	2300 7000 2300 7100
Wire Wire Line
	8800 5900 9200 5900
Wire Wire Line
	8800 5700 9500 5700
Wire Wire Line
	9700 5700 10100 5700
Wire Wire Line
	10100 5900 9400 5900
Wire Wire Line
	9100 6100 10100 6100
$Comp
L mic2287c:MIC2287C U8
U 1 1 5C830DA7
P 1900 6600
F 0 "U8" H 1900 6967 50  0000 C CNN
F 1 "MIC2287C" H 1900 6876 50  0000 C CNN
F 2 "Rounded:TSOT-23-5" H 1950 6350 50  0001 L CIN
F 3 "http://ww1.microchip.com/downloads/en/DeviceDoc/mic2287c.pdf" H 1950 6250 50  0001 L CNN
	1    1900 6600
	1    0    0    -1  
$EndComp
Wire Wire Line
	1900 6900 1900 7000
Wire Wire Line
	2050 6100 2300 6100
Connection ~ 2300 6100
Wire Wire Line
	1750 6100 1500 6100
$Comp
L Device:C_Small C53
U 1 1 5CA15E3A
P 2800 5900
F 0 "C53" H 2892 5946 50  0000 L CNN
F 1 "220nF/16V" H 2892 5855 50  0000 L CNN
F 2 "Capacitor_SMD:C_0603_1608Metric" H 2800 5900 50  0001 C CNN
F 3 "~" H 2800 5900 50  0001 C CNN
	1    2800 5900
	1    0    0    -1  
$EndComp
$Comp
L Device:LED_RABG LD1
U 1 1 5CBE175B
P 10300 5900
F 0 "LD1" H 10300 6397 50  0000 C CNN
F 1 "XZMDKCBDDG45S-9 " H 10300 6306 50  0000 C CNN
F 2 "Footprints:LED_SunLED_PLCC4_3.2x2.8mm_P1.45mm" H 10300 5850 50  0001 C CNN
F 3 "https://www.sunledusa.com/products/spec/XZMDKCBDDG45S-9.pdf" H 10300 5850 50  0001 C CNN
	1    10300 5900
	1    0    0    -1  
$EndComp
$EndSCHEMATC
