EESchema Schematic File Version 4
LIBS:f100-cache
EELAYER 26 0
EELAYER END
$Descr A4 11693 8268
encoding utf-8
Sheet 5 5
Title "Power"
Date "2019-05-29"
Rev "1.3.1"
Comp ""
Comment1 ""
Comment2 ""
Comment3 ""
Comment4 ""
$EndDescr
$Comp
L Switch:SW_SPDT SW?
U 1 1 5C836115
P 1800 4500
AR Path="/5C836115" Ref="SW?"  Part="1" 
AR Path="/5C830E1F/5C836115" Ref="SW1"  Part="1" 
F 0 "SW1" H 1800 4785 50  0000 C CNN
F 1 "POWER" H 1800 4694 50  0000 C CNN
F 2 "Rounded:SW_SPDT_CK-JS102011SAQN" H 1800 4500 50  0001 C CNN
F 3 "https://www.ckswitches.com/media/1422/js.pdf" H 1800 4500 50  0001 C CNN
	1    1800 4500
	-1   0    0    -1  
$EndComp
$Comp
L Device:C_Small C?
U 1 1 5C839AE2
P 1500 6300
AR Path="/5C839AE2" Ref="C?"  Part="1" 
AR Path="/5C830E1F/5C839AE2" Ref="C50"  Part="1" 
F 0 "C50" H 1409 6254 50  0000 R CNN
F 1 "1uF" H 1409 6345 50  0000 R CNN
F 2 "Capacitor_SMD:C_0603_1608Metric" H 1500 6300 50  0001 C CNN
F 3 "~" H 1500 6300 50  0001 C CNN
	1    1500 6300
	1    0    0    1   
$EndComp
$Comp
L Device:C_Small C?
U 1 1 5C839AE9
P 2300 6300
AR Path="/5C839AE9" Ref="C?"  Part="1" 
AR Path="/5C830E1F/5C839AE9" Ref="C51"  Part="1" 
F 0 "C51" H 2392 6346 50  0000 L CNN
F 1 "1uF" H 2392 6255 50  0000 L CNN
F 2 "Capacitor_SMD:C_0603_1608Metric" H 2300 6300 50  0001 C CNN
F 3 "~" H 2300 6300 50  0001 C CNN
	1    2300 6300
	1    0    0    -1  
$EndComp
Wire Wire Line
	1600 6100 1500 6100
Wire Wire Line
	2200 6100 2300 6100
$Comp
L power:VCC #PWR?
U 1 1 5C839AF2
P 1500 6000
AR Path="/5C839AF2" Ref="#PWR?"  Part="1" 
AR Path="/5C830E1F/5C839AF2" Ref="#PWR0106"  Part="1" 
F 0 "#PWR0106" H 1500 5850 50  0001 C CNN
F 1 "VCC" H 1517 6173 50  0000 C CNN
F 2 "" H 1500 6000 50  0001 C CNN
F 3 "" H 1500 6000 50  0001 C CNN
	1    1500 6000
	1    0    0    -1  
$EndComp
Wire Wire Line
	1500 6000 1500 6100
Connection ~ 1500 6100
Text GLabel 2400 6100 2    50   Output ~ 0
+VRTC
Wire Wire Line
	2300 6100 2400 6100
Connection ~ 2300 6100
$Comp
L power:GND #PWR?
U 1 1 5C839AFD
P 1900 6500
AR Path="/5C839AFD" Ref="#PWR?"  Part="1" 
AR Path="/5C830E1F/5C839AFD" Ref="#PWR0107"  Part="1" 
F 0 "#PWR0107" H 1900 6250 50  0001 C CNN
F 1 "GND" H 1905 6327 50  0000 C CNN
F 2 "" H 1900 6500 50  0001 C CNN
F 3 "" H 1900 6500 50  0001 C CNN
	1    1900 6500
	1    0    0    -1  
$EndComp
$Comp
L power:GND #PWR?
U 1 1 5C839B03
P 2300 6500
AR Path="/5C839B03" Ref="#PWR?"  Part="1" 
AR Path="/5C830E1F/5C839B03" Ref="#PWR0108"  Part="1" 
F 0 "#PWR0108" H 2300 6250 50  0001 C CNN
F 1 "GND" H 2305 6327 50  0000 C CNN
F 2 "" H 2300 6500 50  0001 C CNN
F 3 "" H 2300 6500 50  0001 C CNN
	1    2300 6500
	1    0    0    -1  
$EndComp
$Comp
L power:GND #PWR?
U 1 1 5C839B09
P 1500 6500
AR Path="/5C839B09" Ref="#PWR?"  Part="1" 
AR Path="/5C830E1F/5C839B09" Ref="#PWR0109"  Part="1" 
F 0 "#PWR0109" H 1500 6250 50  0001 C CNN
F 1 "GND" H 1505 6327 50  0000 C CNN
F 2 "" H 1500 6500 50  0001 C CNN
F 3 "" H 1500 6500 50  0001 C CNN
	1    1500 6500
	1    0    0    -1  
$EndComp
Wire Wire Line
	1900 6400 1900 6500
$Comp
L Regulator_Linear:AP2127N-3.3 U?
U 1 1 5C839B10
P 1900 6100
AR Path="/5C839B10" Ref="U?"  Part="1" 
AR Path="/5C830E1F/5C839B10" Ref="U7"  Part="1" 
F 0 "U7" H 1900 6342 50  0000 C CNN
F 1 "AP2138N-3.3TRG1" H 1900 6251 50  0000 C CNN
F 2 "Rounded:SOT-23" H 1900 6325 50  0001 C CIN
F 3 "https://www.diodes.com/assets/Datasheets/AP2138_9.pdf" H 1900 6100 50  0001 C CNN
	1    1900 6100
	1    0    0    -1  
$EndComp
Wire Wire Line
	2300 6100 2300 6200
Wire Wire Line
	2300 6400 2300 6500
Wire Wire Line
	1500 6400 1500 6500
Wire Wire Line
	1500 6100 1500 6200
$Comp
L power:GND #PWR?
U 1 1 5C83FCCE
P 3300 2750
AR Path="/5C83FCCE" Ref="#PWR?"  Part="1" 
AR Path="/5C830E1F/5C83FCCE" Ref="#PWR0110"  Part="1" 
F 0 "#PWR0110" H 3300 2500 50  0001 C CNN
F 1 "GND" H 3305 2577 50  0000 C CNN
F 2 "" H 3300 2750 50  0001 C CNN
F 3 "" H 3300 2750 50  0001 C CNN
	1    3300 2750
	1    0    0    -1  
$EndComp
$Comp
L Device:L L?
U 1 1 5C83FCD4
P 3950 2250
AR Path="/5C83FCD4" Ref="L?"  Part="1" 
AR Path="/5C830E1F/5C83FCD4" Ref="L1"  Part="1" 
F 0 "L1" V 4140 2250 50  0000 C CNN
F 1 "4.7uH" V 4049 2250 50  0000 C CNN
F 2 "Footprints:L_1008_2520Metric" H 3950 2250 50  0001 C CNN
F 3 "https://www.murata.com/~/media/webrenewal/products/inductor/chip/tokoproducts/wirewoundmetalalloychiptype/m_dfe252012p.ashx" H 3950 2250 50  0001 C CNN
	1    3950 2250
	0    -1   -1   0   
$EndComp
$Comp
L pam2301caab330:PAM2301CAAB330 U?
U 1 1 5C83FCDB
P 3300 2350
AR Path="/5C83FCDB" Ref="U?"  Part="1" 
AR Path="/5C830E1F/5C83FCDB" Ref="U5"  Part="1" 
F 0 "U5" H 3300 2717 50  0000 C CNN
F 1 "PAM2301CAAB330" H 3300 2626 50  0000 C CNN
F 2 "Rounded:TSOT-23-5" H 3350 2100 50  0001 L CNN
F 3 "https://www.diodes.com/assets/Datasheets/PAM2301.pdf" H 3350 2000 50  0001 L CNN
	1    3300 2350
	1    0    0    -1  
$EndComp
Wire Wire Line
	3700 2450 4200 2450
Wire Wire Line
	4200 2450 4200 2250
Wire Wire Line
	3800 2250 3700 2250
Connection ~ 4200 2250
$Comp
L power:+3.3V #PWR?
U 1 1 5C83FCE6
P 4400 2250
AR Path="/5C83FCE6" Ref="#PWR?"  Part="1" 
AR Path="/5C830E1F/5C83FCE6" Ref="#PWR0126"  Part="1" 
F 0 "#PWR0126" H 4400 2100 50  0001 C CNN
F 1 "+3.3V" V 4415 2378 50  0000 L CNN
F 2 "" H 4400 2250 50  0001 C CNN
F 3 "" H 4400 2250 50  0001 C CNN
	1    4400 2250
	0    1    1    0   
$EndComp
Wire Wire Line
	2800 2450 2900 2450
$Comp
L power:VBUS #PWR?
U 1 1 5C83FCED
P 1500 1550
AR Path="/5C83FCED" Ref="#PWR?"  Part="1" 
AR Path="/5C830E1F/5C83FCED" Ref="#PWR0127"  Part="1" 
F 0 "#PWR0127" H 1500 1400 50  0001 C CNN
F 1 "VBUS" H 1515 1723 50  0000 C CNN
F 2 "" H 1500 1550 50  0001 C CNN
F 3 "" H 1500 1550 50  0001 C CNN
	1    1500 1550
	1    0    0    -1  
$EndComp
$Comp
L Device:D_Schottky D?
U 1 1 5C83FCF3
P 1750 2250
AR Path="/5C83FCF3" Ref="D?"  Part="1" 
AR Path="/5C830E1F/5C83FCF3" Ref="D1"  Part="1" 
F 0 "D1" H 1750 2034 50  0000 C CNN
F 1 "40V/1A" H 1750 2125 50  0000 C CNN
F 2 "Rounded:D_SOD-123" H 1750 2250 50  0001 C CNN
F 3 "https://assets.nexperia.com/documents/data-sheet/PMEG4010CEGW.pdf" H 1750 2250 50  0001 C CNN
	1    1750 2250
	-1   0    0    1   
$EndComp
Wire Wire Line
	2000 2050 2000 2250
Wire Wire Line
	2000 2250 1900 2250
Wire Wire Line
	1600 2250 1500 2250
Wire Wire Line
	1500 2250 1500 1850
Wire Wire Line
	1500 1850 1700 1850
Connection ~ 1500 1850
$Comp
L power:+BATT #PWR?
U 1 1 5C83FD00
P 2000 1550
AR Path="/5C83FD00" Ref="#PWR?"  Part="1" 
AR Path="/5C830E1F/5C83FD00" Ref="#PWR0128"  Part="1" 
F 0 "#PWR0128" H 2000 1400 50  0001 C CNN
F 1 "+BATT" H 2015 1723 50  0000 C CNN
F 2 "" H 2000 1550 50  0001 C CNN
F 3 "" H 2000 1550 50  0001 C CNN
	1    2000 1550
	1    0    0    -1  
$EndComp
Wire Wire Line
	1500 1550 1500 1850
Connection ~ 2000 2250
Wire Wire Line
	2000 2250 2000 2400
$Comp
L Device:R_Small R?
U 1 1 5C83FD0A
P 1500 2450
AR Path="/5C83FD0A" Ref="R?"  Part="1" 
AR Path="/5C830E1F/5C83FD0A" Ref="R18"  Part="1" 
F 0 "R18" H 1559 2496 50  0000 L CNN
F 1 "100k/5%" H 1559 2405 50  0000 L CNN
F 2 "Resistor_SMD:R_0603_1608Metric" H 1500 2450 50  0001 C CNN
F 3 "~" H 1500 2450 50  0001 C CNN
	1    1500 2450
	-1   0    0    -1  
$EndComp
Wire Wire Line
	1500 2250 1500 2350
Connection ~ 1500 2250
Wire Wire Line
	4300 2250 4300 2400
Wire Wire Line
	4300 2250 4400 2250
Connection ~ 4300 2250
Wire Wire Line
	4200 2250 4300 2250
Wire Wire Line
	4100 2250 4200 2250
$Comp
L Device:C_Small C?
U 1 1 5C83FD1F
P 2000 2500
AR Path="/5C83FD1F" Ref="C?"  Part="1" 
AR Path="/5C830E1F/5C83FD1F" Ref="C48"  Part="1" 
F 0 "C48" H 2092 2546 50  0000 L CNN
F 1 "22uF/10V" H 2092 2455 50  0000 L CNN
F 2 "Capacitor_SMD:C_0603_1608Metric" H 2000 2500 50  0001 C CNN
F 3 "~" H 2000 2500 50  0001 C CNN
	1    2000 2500
	-1   0    0    -1  
$EndComp
$Comp
L Device:C_Small C?
U 1 1 5C83FD26
P 4300 2500
AR Path="/5C83FD26" Ref="C?"  Part="1" 
AR Path="/5C830E1F/5C83FD26" Ref="C49"  Part="1" 
F 0 "C49" H 4392 2546 50  0000 L CNN
F 1 "22uF/10V" H 4392 2455 50  0000 L CNN
F 2 "Capacitor_SMD:C_0603_1608Metric" H 4300 2500 50  0001 C CNN
F 3 "~" H 4300 2500 50  0001 C CNN
	1    4300 2500
	1    0    0    -1  
$EndComp
Text GLabel 2800 2450 0    50   Input ~ 0
POWER
Wire Wire Line
	2000 2250 2800 2250
$Comp
L power:VCC #PWR?
U 1 1 5C83FD31
P 2800 2050
AR Path="/5C83FD31" Ref="#PWR?"  Part="1" 
AR Path="/5C830E1F/5C83FD31" Ref="#PWR0160"  Part="1" 
F 0 "#PWR0160" H 2800 1900 50  0001 C CNN
F 1 "VCC" H 2817 2223 50  0000 C CNN
F 2 "" H 2800 2050 50  0001 C CNN
F 3 "" H 2800 2050 50  0001 C CNN
	1    2800 2050
	1    0    0    -1  
$EndComp
Wire Wire Line
	2800 2050 2800 2250
Connection ~ 2800 2250
Wire Wire Line
	2800 2250 2900 2250
$Comp
L Device:Q_PMOS_GSD Q?
U 1 1 5C83FD3A
P 1900 1850
AR Path="/5C83FD3A" Ref="Q?"  Part="1" 
AR Path="/5C830E1F/5C83FD3A" Ref="Q1"  Part="1" 
F 0 "Q1" H 2105 1896 50  0000 L CNN
F 1 "DMG2301L-7" H 2105 1805 50  0000 L CNN
F 2 "Rounded:SOT-23" H 2100 1950 50  0001 C CNN
F 3 "https://www.diodes.com/assets/Datasheets/DMG2305UX.pdf" H 1900 1850 50  0001 C CNN
	1    1900 1850
	1    0    0    -1  
$EndComp
Wire Wire Line
	2000 1550 2000 1650
$Comp
L power:+BATT #PWR?
U 1 1 5C844A9F
P 9900 2100
AR Path="/5C844A9F" Ref="#PWR?"  Part="1" 
AR Path="/5C830E1F/5C844A9F" Ref="#PWR0161"  Part="1" 
F 0 "#PWR0161" H 9900 1950 50  0001 C CNN
F 1 "+BATT" V 9915 2228 50  0000 L CNN
F 2 "" H 9900 2100 50  0001 C CNN
F 3 "" H 9900 2100 50  0001 C CNN
	1    9900 2100
	0    1    1    0   
$EndComp
$Comp
L power:GND #PWR?
U 1 1 5C844AA5
P 8600 2600
AR Path="/5C844AA5" Ref="#PWR?"  Part="1" 
AR Path="/5C830E1F/5C844AA5" Ref="#PWR0162"  Part="1" 
F 0 "#PWR0162" H 8600 2350 50  0001 C CNN
F 1 "GND" H 8605 2427 50  0000 C CNN
F 2 "" H 8600 2600 50  0001 C CNN
F 3 "" H 8600 2600 50  0001 C CNN
	1    8600 2600
	1    0    0    -1  
$EndComp
$Comp
L Device:R_Small R?
U 1 1 5C844AB1
P 9300 1900
AR Path="/5C844AB1" Ref="R?"  Part="1" 
AR Path="/5C830E1F/5C844AB1" Ref="R16"  Part="1" 
F 0 "R16" H 9359 1946 50  0000 L CNN
F 1 "100k/1%" H 9359 1855 50  0000 L CNN
F 2 "Resistor_SMD:R_0603_1608Metric" H 9300 1900 50  0001 C CNN
F 3 "~" H 9300 1900 50  0001 C CNN
	1    9300 1900
	1    0    0    -1  
$EndComp
$Comp
L Device:R_Small R?
U 1 1 5C844AB8
P 9300 1500
AR Path="/5C844AB8" Ref="R?"  Part="1" 
AR Path="/5C830E1F/5C844AB8" Ref="R17"  Part="1" 
F 0 "R17" H 9359 1546 50  0000 L CNN
F 1 "100k/1%" H 9359 1455 50  0000 L CNN
F 2 "Resistor_SMD:R_0603_1608Metric" H 9300 1500 50  0001 C CNN
F 3 "~" H 9300 1500 50  0001 C CNN
	1    9300 1500
	1    0    0    -1  
$EndComp
$Comp
L Device:C_Small C?
U 1 1 5C844AC2
P 9800 1500
AR Path="/5C844AC2" Ref="C?"  Part="1" 
AR Path="/5C830E1F/5C844AC2" Ref="C36"  Part="1" 
F 0 "C36" H 9892 1546 50  0000 L CNN
F 1 "100nF" H 9892 1455 50  0000 L CNN
F 2 "Capacitor_SMD:C_0603_1608Metric" H 9800 1500 50  0001 C CNN
F 3 "~" H 9800 1500 50  0001 C CNN
	1    9800 1500
	1    0    0    -1  
$EndComp
Wire Wire Line
	9300 1700 9800 1700
Wire Wire Line
	9800 1600 9800 1700
Wire Wire Line
	9300 2000 9300 2100
Wire Wire Line
	9800 1300 9800 1400
Wire Wire Line
	9300 1300 9300 1400
Wire Wire Line
	9100 1300 9100 1400
Text GLabel 9900 1700 2    50   Output ~ 0
BATT_VOLTAGE
Wire Wire Line
	9800 1700 9900 1700
Connection ~ 9800 1700
$Comp
L Battery_Management:MCP73831-2-OT U?
U 1 1 5C844AD6
P 8600 2200
AR Path="/5C844AD6" Ref="U?"  Part="1" 
AR Path="/5C830E1F/5C844AD6" Ref="U6"  Part="1" 
F 0 "U6" H 8350 1950 50  0000 C CNN
F 1 "MCP73831-2-OT" H 9000 1950 50  0000 C CNN
F 2 "Rounded:SOT-23-5" H 8650 1950 50  0001 L CIN
F 3 "http://ww1.microchip.com/downloads/en/DeviceDoc/20001984g.pdf" H 8450 2150 50  0001 C CNN
	1    8600 2200
	1    0    0    -1  
$EndComp
Wire Wire Line
	9100 1600 9100 2100
Text GLabel 9900 2300 2    50   Output ~ 0
BATT_STAT
$Comp
L Connector_Generic:Conn_01x02 J?
U 1 1 5C844AE3
P 9700 3650
AR Path="/5C844AE3" Ref="J?"  Part="1" 
AR Path="/5C830E1F/5C844AE3" Ref="J5"  Part="1" 
F 0 "J5" H 9780 3642 50  0000 L CNN
F 1 "0532610271" H 9780 3551 50  0000 L CNN
F 2 "Connector_Molex:Molex_PicoBlade_53261-0271_1x02-1MP_P1.25mm_Horizontal" H 9700 3650 50  0001 C CNN
F 3 "https://www.molex.com/pdm_docs/sd/532610271_sd.pdf" H 9700 3650 50  0001 C CNN
	1    9700 3650
	1    0    0    -1  
$EndComp
$Comp
L power:+BATT #PWR?
U 1 1 5C844AEA
P 9400 3650
AR Path="/5C844AEA" Ref="#PWR?"  Part="1" 
AR Path="/5C830E1F/5C844AEA" Ref="#PWR0164"  Part="1" 
F 0 "#PWR0164" H 9400 3500 50  0001 C CNN
F 1 "+BATT" V 9415 3777 50  0000 L CNN
F 2 "" H 9400 3650 50  0001 C CNN
F 3 "" H 9400 3650 50  0001 C CNN
	1    9400 3650
	0    -1   -1   0   
$EndComp
$Comp
L power:GND #PWR?
U 1 1 5C844AF0
P 9400 3750
AR Path="/5C844AF0" Ref="#PWR?"  Part="1" 
AR Path="/5C830E1F/5C844AF0" Ref="#PWR0168"  Part="1" 
F 0 "#PWR0168" H 9400 3500 50  0001 C CNN
F 1 "GND" V 9405 3622 50  0000 R CNN
F 2 "" H 9400 3750 50  0001 C CNN
F 3 "" H 9400 3750 50  0001 C CNN
	1    9400 3750
	0    1    1    0   
$EndComp
Wire Wire Line
	9400 3650 9500 3650
Wire Wire Line
	9400 3750 9500 3750
$Comp
L Device:C_Small C?
U 1 1 5C844AF8
P 9100 1500
AR Path="/5C844AF8" Ref="C?"  Part="1" 
AR Path="/5C830E1F/5C844AF8" Ref="C39"  Part="1" 
F 0 "C39" H 9192 1546 50  0000 L CNN
F 1 "1uF/16V" H 9192 1455 50  0000 L CNN
F 2 "Capacitor_SMD:C_0603_1608Metric" H 9100 1500 50  0001 C CNN
F 3 "~" H 9100 1500 50  0001 C CNN
	1    9100 1500
	-1   0    0    -1  
$EndComp
$Comp
L Device:R_Small R?
U 1 1 5C844B06
P 7900 2500
AR Path="/5C844B06" Ref="R?"  Part="1" 
AR Path="/5C830E1F/5C844B06" Ref="R15"  Part="1" 
F 0 "R15" H 7959 2546 50  0000 L CNN
F 1 "10k/5%" H 7959 2455 50  0000 L CNN
F 2 "Resistor_SMD:R_0603_1608Metric" H 7900 2500 50  0001 C CNN
F 3 "~" H 7900 2500 50  0001 C CNN
	1    7900 2500
	1    0    0    -1  
$EndComp
$Comp
L power:GND #PWR?
U 1 1 5C844B14
P 7900 2700
AR Path="/5C844B14" Ref="#PWR?"  Part="1" 
AR Path="/5C830E1F/5C844B14" Ref="#PWR0169"  Part="1" 
F 0 "#PWR0169" H 7900 2450 50  0001 C CNN
F 1 "GND" H 7905 2527 50  0000 C CNN
F 2 "" H 7900 2700 50  0001 C CNN
F 3 "" H 7900 2700 50  0001 C CNN
	1    7900 2700
	1    0    0    -1  
$EndComp
Wire Wire Line
	7900 2400 7900 2300
Wire Wire Line
	8200 2300 7900 2300
Connection ~ 9300 2100
$Comp
L power:GND #PWR?
U 1 1 5C844B3A
P 9700 4750
AR Path="/5C844B3A" Ref="#PWR?"  Part="1" 
AR Path="/5C830E1F/5C844B3A" Ref="#PWR0170"  Part="1" 
F 0 "#PWR0170" H 9700 4500 50  0001 C CNN
F 1 "GND" V 9705 4622 50  0000 R CNN
F 2 "" H 9700 4750 50  0001 C CNN
F 3 "" H 9700 4750 50  0001 C CNN
	1    9700 4750
	0    -1   -1   0   
$EndComp
$Comp
L Device:R_Small R?
U 1 1 5C844B41
P 8800 4700
AR Path="/5C844B41" Ref="R?"  Part="1" 
AR Path="/5C830E1F/5C844B41" Ref="R23"  Part="1" 
F 0 "R23" V 8604 4700 50  0000 C CNN
F 1 "150/5%" V 8695 4700 50  0000 C CNN
F 2 "Resistor_SMD:R_0603_1608Metric" H 8800 4700 50  0001 C CNN
F 3 "~" H 8800 4700 50  0001 C CNN
	1    8800 4700
	0    1    1    0   
$EndComp
Text GLabel 8600 4700 0    50   Input ~ 0
BATT_STAT
Text GLabel 9700 4950 2    50   Input ~ 0
BATT_STAT
Wire Wire Line
	8900 4700 9000 4700
$Comp
L Device:R_Small R?
U 1 1 5C844B4D
P 8800 5000
AR Path="/5C844B4D" Ref="R?"  Part="1" 
AR Path="/5C830E1F/5C844B4D" Ref="R22"  Part="1" 
F 0 "R22" V 8996 5000 50  0000 C CNN
F 1 "150/5%" V 8905 5000 50  0000 C CNN
F 2 "Resistor_SMD:R_0603_1608Metric" H 8800 5000 50  0001 C CNN
F 3 "~" H 8800 5000 50  0001 C CNN
	1    8800 5000
	0    -1   -1   0   
$EndComp
Wire Wire Line
	8900 5000 9000 5000
Wire Wire Line
	9000 5000 9000 4950
Wire Wire Line
	9000 4750 9000 4700
Wire Wire Line
	7900 2600 7900 2700
$Comp
L power:VBUS #PWR0186
U 1 1 5C88E72B
P 8600 1600
F 0 "#PWR0186" H 8600 1450 50  0001 C CNN
F 1 "VBUS" H 8615 1773 50  0000 C CNN
F 2 "" H 8600 1600 50  0001 C CNN
F 3 "" H 8600 1600 50  0001 C CNN
	1    8600 1600
	1    0    0    -1  
$EndComp
Wire Wire Line
	1500 4400 1600 4400
$Comp
L Device:C_Small C44
U 1 1 5C862F79
P 8300 1800
F 0 "C44" V 8071 1800 50  0000 C CNN
F 1 "4.7uF/16V" V 8162 1800 50  0000 C CNN
F 2 "Capacitor_SMD:C_0603_1608Metric" H 8300 1800 50  0001 C CNN
F 3 "~" H 8300 1800 50  0001 C CNN
	1    8300 1800
	0    1    1    0   
$EndComp
$Comp
L power:GND #PWR0190
U 1 1 5C866852
P 8100 1800
F 0 "#PWR0190" H 8100 1550 50  0001 C CNN
F 1 "GND" V 8105 1672 50  0000 R CNN
F 2 "" H 8100 1800 50  0001 C CNN
F 3 "" H 8100 1800 50  0001 C CNN
	1    8100 1800
	0    1    1    0   
$EndComp
Wire Wire Line
	8200 1800 8100 1800
Wire Wire Line
	9300 1600 9300 1700
Wire Wire Line
	9300 1700 9300 1800
Connection ~ 9300 1700
Wire Wire Line
	9300 2100 9900 2100
$Comp
L power:GND #PWR0191
U 1 1 5C9054BF
P 9300 1300
F 0 "#PWR0191" H 9300 1050 50  0001 C CNN
F 1 "GND" H 9305 1127 50  0000 C CNN
F 2 "" H 9300 1300 50  0001 C CNN
F 3 "" H 9300 1300 50  0001 C CNN
	1    9300 1300
	-1   0    0    1   
$EndComp
$Comp
L power:GND #PWR0192
U 1 1 5C905586
P 9800 1300
F 0 "#PWR0192" H 9800 1050 50  0001 C CNN
F 1 "GND" H 9805 1127 50  0000 C CNN
F 2 "" H 9800 1300 50  0001 C CNN
F 3 "" H 9800 1300 50  0001 C CNN
	1    9800 1300
	-1   0    0    1   
$EndComp
Wire Wire Line
	9000 2100 9100 2100
Wire Wire Line
	9100 2100 9300 2100
Connection ~ 9100 2100
$Comp
L power:GND #PWR0193
U 1 1 5C9133CC
P 9100 1300
F 0 "#PWR0193" H 9100 1050 50  0001 C CNN
F 1 "GND" H 9105 1127 50  0000 C CNN
F 2 "" H 9100 1300 50  0001 C CNN
F 3 "" H 9100 1300 50  0001 C CNN
	1    9100 1300
	-1   0    0    1   
$EndComp
Wire Wire Line
	9000 2300 9900 2300
Wire Wire Line
	8600 2500 8600 2600
$Comp
L Device:Jumper_NO_Small JP0
U 1 1 5C89FB3B
P 2300 5900
F 0 "JP0" V 2254 5948 50  0000 L CNN
F 1 "RTC LDO Bypass" V 2345 5948 50  0000 L CNN
F 2 "Resistor_SMD:R_0603_1608Metric" H 2300 5900 50  0001 C CNN
F 3 "~" H 2300 5900 50  0001 C CNN
	1    2300 5900
	0    1    1    0   
$EndComp
Wire Wire Line
	2300 6000 2300 6100
$Comp
L power:+3.3V #PWR03
U 1 1 5C8A2C88
P 2300 5700
F 0 "#PWR03" H 2300 5550 50  0001 C CNN
F 1 "+3.3V" H 2315 5873 50  0000 C CNN
F 2 "" H 2300 5700 50  0001 C CNN
F 3 "" H 2300 5700 50  0001 C CNN
	1    2300 5700
	1    0    0    -1  
$EndComp
Wire Wire Line
	2300 5700 2300 5800
$Comp
L power:GND #PWR0125
U 1 1 5CA26D83
P 4300 2750
F 0 "#PWR0125" H 4300 2500 50  0001 C CNN
F 1 "GND" H 4305 2577 50  0000 C CNN
F 2 "" H 4300 2750 50  0001 C CNN
F 3 "" H 4300 2750 50  0001 C CNN
	1    4300 2750
	1    0    0    -1  
$EndComp
$Comp
L power:GND #PWR0194
U 1 1 5CA26EF2
P 2000 2750
F 0 "#PWR0194" H 2000 2500 50  0001 C CNN
F 1 "GND" H 2005 2577 50  0000 C CNN
F 2 "" H 2000 2750 50  0001 C CNN
F 3 "" H 2000 2750 50  0001 C CNN
	1    2000 2750
	1    0    0    -1  
$EndComp
$Comp
L power:GND #PWR0195
U 1 1 5CA26F83
P 1500 2750
F 0 "#PWR0195" H 1500 2500 50  0001 C CNN
F 1 "GND" H 1505 2577 50  0000 C CNN
F 2 "" H 1500 2750 50  0001 C CNN
F 3 "" H 1500 2750 50  0001 C CNN
	1    1500 2750
	1    0    0    -1  
$EndComp
Wire Wire Line
	3300 2650 3300 2750
Wire Wire Line
	1500 2550 1500 2750
Wire Wire Line
	2000 2600 2000 2750
Wire Wire Line
	4300 2600 4300 2750
Wire Wire Line
	8600 5000 8700 5000
$Comp
L power:VBUS #PWR?
U 1 1 5C844B54
P 8600 5000
AR Path="/5C844B54" Ref="#PWR?"  Part="1" 
AR Path="/5C830E1F/5C844B54" Ref="#PWR0171"  Part="1" 
F 0 "#PWR0171" H 8600 4850 50  0001 C CNN
F 1 "VBUS" V 8615 5127 50  0000 L CNN
F 2 "" H 8600 5000 50  0001 C CNN
F 3 "" H 8600 5000 50  0001 C CNN
	1    8600 5000
	0    -1   -1   0   
$EndComp
Wire Wire Line
	8700 4700 8600 4700
$Comp
L led_dual_caac:LED_Dual_CAAC LD2
U 1 1 5CA2C464
P 9300 4850
F 0 "LD2" H 9300 5275 50  0000 C CNN
F 1 "LED_Dual_CAAC" H 9300 5184 50  0000 C CNN
F 2 "Footprints:LED_LiteOn_C235KGKRKT" H 9330 4850 50  0001 C CNN
F 3 "http://optoelectronics.liteon.com/upload/download/DS22-2009-0219/LTST-C235KGKRKT.pdf" H 9330 4850 50  0001 C CNN
	1    9300 4850
	1    0    0    -1  
$EndComp
Wire Wire Line
	9600 4750 9700 4750
Wire Wire Line
	9600 4950 9700 4950
Wire Wire Line
	8400 1800 8600 1800
Wire Wire Line
	8600 1800 8600 1900
Wire Wire Line
	8600 1600 8600 1800
Connection ~ 8600 1800
$Comp
L power:VCC #PWR010
U 1 1 5CD3CE8E
P 1500 4400
F 0 "#PWR010" H 1500 4250 50  0001 C CNN
F 1 "VCC" V 1518 4527 50  0000 L CNN
F 2 "" H 1500 4400 50  0001 C CNN
F 3 "" H 1500 4400 50  0001 C CNN
	1    1500 4400
	0    -1   -1   0   
$EndComp
Text GLabel 2500 3800 2    50   Output ~ 0
POWER
Wire Wire Line
	2000 3800 2100 3800
Wire Wire Line
	2100 3800 2100 4500
Wire Wire Line
	2100 4500 2000 4500
Text GLabel 1500 3800 0    50   Input ~ 0
POWER_HOLD
Text GLabel 1500 4600 0    50   Output ~ 0
SHUTDOWN
Wire Wire Line
	1500 4600 1600 4600
Text GLabel 6800 2100 1    50   Input ~ 0
BCD
Connection ~ 2100 3800
$Comp
L Device:R_Small R?
U 1 1 5CD06532
P 2300 4000
AR Path="/5CD06532" Ref="R?"  Part="1" 
AR Path="/5C830E1F/5CD06532" Ref="R28"  Part="1" 
F 0 "R28" H 2359 4046 50  0000 L CNN
F 1 "100k/5%" H 2359 3955 50  0000 L CNN
F 2 "Resistor_SMD:R_0603_1608Metric" H 2300 4000 50  0001 C CNN
F 3 "~" H 2300 4000 50  0001 C CNN
	1    2300 4000
	1    0    0    -1  
$EndComp
Wire Wire Line
	2300 3800 2300 3900
Wire Wire Line
	2100 3800 2300 3800
Wire Wire Line
	2500 3800 2300 3800
Connection ~ 2300 3800
$Comp
L power:GND #PWR011
U 1 1 5CD136BA
P 2300 4200
F 0 "#PWR011" H 2300 3950 50  0001 C CNN
F 1 "GND" H 2305 4027 50  0000 C CNN
F 2 "" H 2300 4200 50  0001 C CNN
F 3 "" H 2300 4200 50  0001 C CNN
	1    2300 4200
	1    0    0    -1  
$EndComp
Wire Wire Line
	2300 4200 2300 4100
$Comp
L Device:D_Schottky D?
U 1 1 5CD0C97F
P 1850 3800
AR Path="/5C8D651F/5CD0C97F" Ref="D?"  Part="1" 
AR Path="/5C830E1F/5CD0C97F" Ref="D5"  Part="1" 
F 0 "D5" H 1850 3584 50  0000 C CNN
F 1 "30V/100mA" H 1850 3675 50  0000 C CNN
F 2 "Rounded:D_SOD-523" H 1850 3800 50  0001 C CNN
F 3 "~" H 1850 3800 50  0001 C CNN
	1    1850 3800
	-1   0    0    1   
$EndComp
Wire Wire Line
	1500 3800 1700 3800
Text GLabel 5800 2900 0    50   Input ~ 0
POWER
$Comp
L Device:R_Small R13
U 1 1 5CDF786F
P 7700 2300
F 0 "R13" V 7504 2300 50  0000 C CNN
F 1 "2.5k/5%" V 7595 2300 50  0000 C CNN
F 2 "Resistor_SMD:R_0603_1608Metric" H 7700 2300 50  0001 C CNN
F 3 "~" H 7700 2300 50  0001 C CNN
	1    7700 2300
	0    1    1    0   
$EndComp
Wire Wire Line
	7800 2300 7900 2300
Connection ~ 7900 2300
Wire Wire Line
	7200 2300 7200 2400
$Comp
L Device:Q_DUAL_NMOS_S1G1D2S2G2D1 Q2
U 1 1 5CD321CA
P 6100 2900
F 0 "Q2" H 6306 2946 50  0000 L CNN
F 1 "DMN63D8LDW" H 6306 2855 50  0000 L CNN
F 2 "Rounded:SOT-363_SC-70-6" H 6300 2900 50  0001 C CNN
F 3 "~" H 6300 2900 50  0001 C CNN
	1    6100 2900
	1    0    0    -1  
$EndComp
$Comp
L Device:Q_DUAL_NMOS_S1G1D2S2G2D1 Q2
U 2 1 5CD35E0E
P 7100 2600
F 0 "Q2" H 7305 2646 50  0000 L CNN
F 1 "DMN63D8LDW" H 7305 2555 50  0000 L CNN
F 2 "Rounded:SOT-363_SC-70-6" H 7300 2600 50  0001 C CNN
F 3 "~" H 7300 2600 50  0001 C CNN
	2    7100 2600
	1    0    0    -1  
$EndComp
$Comp
L power:GND #PWR014
U 1 1 5CD37C00
P 7200 2900
F 0 "#PWR014" H 7200 2650 50  0001 C CNN
F 1 "GND" H 7205 2727 50  0000 C CNN
F 2 "" H 7200 2900 50  0001 C CNN
F 3 "" H 7200 2900 50  0001 C CNN
	1    7200 2900
	1    0    0    -1  
$EndComp
Wire Wire Line
	7200 2900 7200 2800
$Comp
L Device:D_Schottky D6
U 1 1 5CD3A033
P 6800 2350
F 0 "D6" V 6846 2271 50  0000 R CNN
F 1 "30V/100mA" V 6755 2271 50  0000 R CNN
F 2 "Rounded:D_SOD-523" H 6800 2350 50  0001 C CNN
F 3 "~" H 6800 2350 50  0001 C CNN
	1    6800 2350
	0    -1   -1   0   
$EndComp
Wire Wire Line
	6800 2100 6800 2200
$Comp
L Device:R_Small R20
U 1 1 5CD48F36
P 6500 2600
F 0 "R20" V 6304 2600 50  0000 C CNN
F 1 "10k/5%" V 6395 2600 50  0000 C CNN
F 2 "Resistor_SMD:R_0603_1608Metric" H 6500 2600 50  0001 C CNN
F 3 "~" H 6500 2600 50  0001 C CNN
	1    6500 2600
	0    1    1    0   
$EndComp
Wire Wire Line
	6600 2600 6800 2600
$Comp
L power:GND #PWR013
U 1 1 5CD506FE
P 6200 3200
F 0 "#PWR013" H 6200 2950 50  0001 C CNN
F 1 "GND" H 6205 3027 50  0000 C CNN
F 2 "" H 6200 3200 50  0001 C CNN
F 3 "" H 6200 3200 50  0001 C CNN
	1    6200 3200
	1    0    0    -1  
$EndComp
Wire Wire Line
	6200 3200 6200 3100
$Comp
L Device:R_Small R?
U 1 1 5CD5A298
P 6200 2400
AR Path="/5CD5A298" Ref="R?"  Part="1" 
AR Path="/5C830E1F/5CD5A298" Ref="R21"  Part="1" 
F 0 "R21" H 6259 2446 50  0000 L CNN
F 1 "10k/5%" H 6259 2355 50  0000 L CNN
F 2 "Resistor_SMD:R_0603_1608Metric" H 6200 2400 50  0001 C CNN
F 3 "~" H 6200 2400 50  0001 C CNN
	1    6200 2400
	-1   0    0    -1  
$EndComp
Wire Wire Line
	6200 2200 6200 2300
$Comp
L power:VBUS #PWR012
U 1 1 5CD75569
P 6200 2200
F 0 "#PWR012" H 6200 2050 50  0001 C CNN
F 1 "VBUS" H 6215 2373 50  0000 C CNN
F 2 "" H 6200 2200 50  0001 C CNN
F 3 "" H 6200 2200 50  0001 C CNN
	1    6200 2200
	1    0    0    -1  
$EndComp
Wire Wire Line
	6400 2600 6200 2600
Wire Wire Line
	6200 2600 6200 2500
Wire Wire Line
	6200 2700 6200 2600
Connection ~ 6200 2600
Wire Wire Line
	6800 2600 6900 2600
Connection ~ 6800 2600
Wire Wire Line
	5800 2900 5900 2900
Wire Wire Line
	6800 2500 6800 2600
Wire Wire Line
	7200 2300 7600 2300
$EndSCHEMATC
