(module D_SOD-523 (layer F.Cu) (tedit 5CA52592)
  (descr "http://www.diodes.com/datasheets/ap02001.pdf p.144")
  (tags "Diode SOD523")
  (attr smd)
  (fp_text reference REF** (at 0 -1.3) (layer F.SilkS)
    (effects (font (size 1 1) (thickness 0.15)))
  )
  (fp_text value D_SOD-523 (at 0 1.4) (layer F.Fab)
    (effects (font (size 1 1) (thickness 0.15)))
  )
  (fp_line (start 0.7 0.6) (end -1.15 0.6) (layer F.SilkS) (width 0.12))
  (fp_line (start 0.7 -0.6) (end -1.15 -0.6) (layer F.SilkS) (width 0.12))
  (fp_line (start 0.65 0.45) (end -0.65 0.45) (layer F.Fab) (width 0.1))
  (fp_line (start -0.65 0.45) (end -0.65 -0.45) (layer F.Fab) (width 0.1))
  (fp_line (start -0.65 -0.45) (end 0.65 -0.45) (layer F.Fab) (width 0.1))
  (fp_line (start 0.65 -0.45) (end 0.65 0.45) (layer F.Fab) (width 0.1))
  (fp_line (start -0.2 0.2) (end -0.2 -0.2) (layer F.Fab) (width 0.1))
  (fp_line (start -0.2 0) (end -0.35 0) (layer F.Fab) (width 0.1))
  (fp_line (start -0.2 0) (end 0.1 0.2) (layer F.Fab) (width 0.1))
  (fp_line (start 0.1 0.2) (end 0.1 -0.2) (layer F.Fab) (width 0.1))
  (fp_line (start 0.1 -0.2) (end -0.2 0) (layer F.Fab) (width 0.1))
  (fp_line (start 0.1 0) (end 0.25 0) (layer F.Fab) (width 0.1))
  (fp_line (start 1.25 0.7) (end -1.25 0.7) (layer F.CrtYd) (width 0.05))
  (fp_line (start -1.25 0.7) (end -1.25 -0.7) (layer F.CrtYd) (width 0.05))
  (fp_line (start -1.25 -0.7) (end 1.25 -0.7) (layer F.CrtYd) (width 0.05))
  (fp_line (start 1.25 -0.7) (end 1.25 0.7) (layer F.CrtYd) (width 0.05))
  (fp_line (start -1.15 -0.6) (end -1.15 0.6) (layer F.SilkS) (width 0.12))
  (fp_text user %R (at 0 -1.3) (layer F.Fab)
    (effects (font (size 1 1) (thickness 0.15)))
  )
  (pad 1 smd roundrect (at -0.7 0 180) (size 0.6 0.7) (layers F.Cu F.Paste F.Mask) (roundrect_rratio 0.25))
  (pad 2 smd roundrect (at 0.7 0 180) (size 0.6 0.7) (layers F.Cu F.Paste F.Mask) (roundrect_rratio 0.25))
  (model ${KISYS3DMOD}/Diode_SMD.3dshapes/D_SOD-523.wrl
    (at (xyz 0 0 0))
    (scale (xyz 1 1 1))
    (rotate (xyz 0 0 0))
  )
)
